{
  "fiscalData": {
    "result": [
      {
        "name": "A",
        "tag": "string"
      },
      {
        "name": "C",
        "tag": "string"
      }
    ]
  },
  "detailInvoiceResult": [
    {
      "id": 1,
      "result": {
        "emisionDate": "13/12/2021",
        "invoiceType": {
          "name": "A",
          "tag": "string"
        },
        "invoiceNumber": "22222222",
        "salePoint": "22222",
        "caeNumber": "12345678901234"
      }
    },
    {
      "id": 2,
      "result": {
        "id": 2
      }
    },
    {
      "id": 3,
      "result": {
        "id": 3
      }
    }
  ],
  "detailInvoice": [
    {
      "id": 1,
      "result": {
        "id": 1,
        "emisionDate": "13/12/2021",
        "invoiceNumber": "",
        "salePoint": "8765",
        "invoiceType": {
          "name": "",
          "tag": "string"
        },
        "caeNumber": "12345678901234",
        "fiscalData": {
          "fiscalNumber": "string",
          "companyName": "string",
          "taxPayerType": "string",
          "total": 123.123
        },
        "invoiceFile": {
          "upload": true,
          "url": null
        },
        "presettlement": {
          "status": {
            "id": 1,
            "name": "Aprobado",
            "tag": "approved"
          },
          "genereted_at": "13/12/2021"
        }
      }
    },
    {
      "id": 2,
      "result": {
        "id": 2,
        "emisionDate": "string",
        "invoiceNumber": "string",
        "salePoint": "string",
        "invoiceType": {
          "name": "C",
          "tag": "string"
        },
        "caeNumber": "string",
        "fiscalData": {
          "fiscalNumber": "string",
          "companyName": "string",
          "taxPayerType": "string",
          "total": 123.123
        },
        "invoiceFile": {
          "upload": true,
          "url": null
        },
        "presettlement": {
          "status": {
            "id": 1,
            "name": "Pendiente de contabilidad",
            "tag": "pending_accounting"
          },
          "genereted_at": "13/12/2021"
        }
      }
    },
    {
      "id": 3,
      "result": {
        "id": 3,
        "emisionDate": "string",
        "invoiceNumber": "string",
        "salePoint": "string",
        "invoiceType": {
          "name": "A",
          "tag": "string"
        },
        "caeNumber": "string",
        "fiscalData": {
          "fiscalNumber": "string",
          "companyName": "string",
          "taxPayerType": "string",
          "total": 123.123
        },
        "invoiceFile": {
          "upload": true,
          "url": null
        },
        "presettlement": {
          "status": {
            "id": 1,
            "name": "pago generado",
            "tag": "generated_payment"
          },
          "genereted_at": "13/12/2021"
        }
      }
    }
  ],
  "presettlments": {
    "result": {
      "items": [
        {
          "id": 1,
          "fiscalNumber": 123123,
          "status": {
            "id": 1,
            "name": "Aprobado",
            "tag": "APPROVED"
          },
          "total": 123.123,
          "genereted_at": "17/12/2021"
        },
        {
          "id": 2,
          "fiscalNumber": 123123,
          "status": {
            "id": 1,
            "name": "Aprobado",
            "tag": "APPROVED"
          },
          "total": 123.123,
          "genereted_at": "17/12/2021"
        },
        {
          "id": 3,
          "fiscalNumber": 123123,
          "status": {
            "id": 1,
            "name": "Pendiente",
            "tag": "PENDING"
          },
          "total": 123.123,
          "genereted_at": "17/12/2021"
        }
      ]
    },
    "limit": 20,
    "offset": 0,
    "hasMore": true
  },
  "invoiceType": [
    {
      "name": "A",
      "tag": "string"
    },
    {
      "name": "C",
      "tag": "string"
    }
  ]
}